-------------------------------------------------------------------------------
Test set: com.mycompany.useradmintoolclient.stubs.UserServiceAddUserTest
-------------------------------------------------------------------------------
Tests run: 500, Failures: 0, Errors: 0, Skipped: 0, Time elapsed: 43.782 sec
